module gitlab.com/doertydoerk/garage-api

go 1.22

require (
	github.com/pdrum/swagger-automation v0.0.0-20190629163613-c8c7c80ba858
	github.com/stianeikeland/go-rpio/v4 v4.6.0
	github.com/stretchr/testify v1.9.0
)

require (
	github.com/davecgh/go-spew v1.1.1 // indirect
	github.com/kr/pretty v0.3.1 // indirect
	github.com/labstack/echo v3.3.10+incompatible // indirect
	github.com/labstack/gommon v0.2.9 // indirect
	github.com/mattn/go-colorable v0.1.13 // indirect
	github.com/mattn/go-isatty v0.0.20 // indirect
	github.com/pmezard/go-difflib v1.0.0 // indirect
	github.com/rogpeppe/go-internal v1.12.0 // indirect
	github.com/valyala/bytebufferpool v1.0.0 // indirect
	github.com/valyala/fasttemplate v1.2.2 // indirect
	golang.org/x/crypto v0.26.0 // indirect
	golang.org/x/net v0.28.0 // indirect
	golang.org/x/sys v0.24.0 // indirect
	golang.org/x/text v0.17.0 // indirect
	gopkg.in/check.v1 v1.0.0-20201130134442-10cb98267c6c // indirect
	gopkg.in/yaml.v3 v3.0.1 // indirect
)
